EESchema Schematic File Version 4
EELAYER 26 0
EELAYER END
$Descr A4 11693 8268
encoding utf-8
Sheet 1 1
Title ""
Date ""
Rev ""
Comp ""
Comment1 ""
Comment2 ""
Comment3 ""
Comment4 ""
$EndDescr
Wire Wire Line
	4900 2600 5000 2600
Wire Wire Line
	4900 2600 4900 2300
Wire Wire Line
	4900 2300 4900 2200
Wire Wire Line
	4900 2300 4500 2300
Wire Wire Line
	4500 2300 4500 2340
Connection ~ 4900 2300
Text Label 4900 2600 0    10   ~ 0
+12V
Wire Wire Line
	1600 4500 1900 4500
Wire Wire Line
	1900 4500 1900 4300
Text Label 1600 4500 0    10   ~ 0
+12V
Wire Wire Line
	6800 2200 6800 2700
Text Label 6800 2200 0    10   ~ 0
+12V
Wire Wire Line
	6800 5000 6800 4600
Text Label 6800 5000 0    10   ~ 0
+12V
Wire Wire Line
	4900 4900 5000 4900
Wire Wire Line
	4900 4600 4900 4900
Text Label 4900 4900 0    10   ~ 0
+12V
Wire Wire Line
	6200 2800 6600 2800
Text Label 6600 2800 3    70   ~ 0
GATE_LICHT
Wire Wire Line
	6200 5100 6600 5100
Text Label 6400 5100 3    70   ~ 0
GATE_BREMSLICHT
Wire Wire Line
	6800 6000 6800 5400
Wire Wire Line
	6800 6000 7600 6000
Text Label 7600 6000 2    70   ~ 0
OUT_BREAKS
Wire Wire Line
	9000 3300 8300 3300
Text Label 8650 3300 2    70   ~ 0
OUT_BREAKS
Wire Wire Line
	5000 5300 4900 5300
Wire Wire Line
	4900 5600 4900 5300
Text Label 5000 5300 0    10   ~ 0
GND
Wire Wire Line
	9800 3100 9800 3000
Wire Wire Line
	9800 3000 10000 3000
Wire Wire Line
	10000 2800 9800 2800
Wire Wire Line
	9800 2800 9800 3000
Connection ~ 9800 3000
Text Label 9800 3100 0    10   ~ 0
GND
Wire Wire Line
	1900 5000 1900 4900
Wire Wire Line
	1900 4900 1600 4900
Text Label 1900 5000 0    10   ~ 0
GND
Wire Wire Line
	5000 3000 4900 3000
Wire Wire Line
	4900 3000 4900 3400
Text Label 5000 3000 0    10   ~ 0
GND
Wire Wire Line
	1800 3000 2100 3000
Text Label 1900 3000 0    70   ~ 0
IN_BREAKS
Wire Wire Line
	4400 5100 3800 5100
Text Label 4100 5100 2    70   ~ 0
IN_BREAKS
Wire Wire Line
	4500 2800 4300 2800
Wire Wire Line
	4500 2740 4500 2800
Wire Wire Line
	5000 2800 4500 2800
Connection ~ 4500 2800
Wire Wire Line
	4100 2800 3800 2800
Text Label 3950 2800 2    70   ~ 0
IN_LIGHTS
Wire Wire Line
	1800 2600 2100 2600
Text Label 1900 2600 0    70   ~ 0
IN_LIGHTS
Wire Wire Line
	4800 5100 5000 5100
Wire Wire Line
	6800 3800 6800 3100
Wire Wire Line
	6800 3800 7300 3800
Text Label 7300 3800 2    70   ~ 0
OUT_LICHT
Wire Wire Line
	9000 2700 8700 2700
Wire Wire Line
	8700 2700 8300 2700
Wire Wire Line
	9000 3000 8700 3000
Wire Wire Line
	8700 3000 8700 2700
Text Label 8700 2700 2    70   ~ 0
OUT_LICHT
Connection ~ 8700 2700
$Comp
L main-eagle-import:SI7461DP U$1
U 1 0 850A8AB0BABD3B23
P 6800 2900
F 0 "U$1" H 6950 2850 59  0000 L TNN
F 1 "SI7461DP" H 6950 2950 59  0000 L TNN
F 2 "main:POWERPAK_SO8_SINGLE" H 6800 2900 50  0001 C CNN
F 3 "" H 6800 2900 50  0001 C CNN
	1    6800 2900
	1    0    0    -1  
$EndComp
$Comp
L main-eagle-import:+12V #P+03
U 1 0 DC184ABA00F05DF6
P 4900 2100
F 0 "#P+03" H 4900 2100 50  0001 C CNN
F 1 "+12V" V 4800 1900 59  0000 L BNN
F 2 "" H 4900 2100 50  0001 C CNN
F 3 "" H 4900 2100 50  0001 C CNN
	1    4900 2100
	1    0    0    -1  
$EndComp
$Comp
L main-eagle-import:R_USB R1
U 1 0 40B8EDBB31F41B41
P 4500 2540
F 0 "R1" H 4350 2599 59  0000 L BNN
F 1 "30k" H 4350 2410 59  0000 L BNN
F 2 "main:0805" H 4500 2540 50  0001 C CNN
F 3 "" H 4500 2540 50  0001 C CNN
	1    4500 2540
	0    1    1    0   
$EndComp
$Comp
L main-eagle-import:SI7461DP U$4
U 1 0 4E25407E84E86E02
P 6800 5200
F 0 "U$4" H 6950 5150 59  0000 L TNN
F 1 "SI7461DP" H 6950 5250 59  0000 L TNN
F 2 "main:POWERPAK_SO8_SINGLE" H 6800 5200 50  0001 C CNN
F 3 "" H 6800 5200 50  0001 C CNN
	1    6800 5200
	1    0    0    -1  
$EndComp
$Comp
L main-eagle-import:GND #GND05
U 1 0 D2D9FA1DEF27308A
P 4900 3500
F 0 "#GND05" H 4900 3500 50  0001 C CNN
F 1 "GND" H 4800 3400 59  0000 L BNN
F 2 "" H 4900 3500 50  0001 C CNN
F 3 "" H 4900 3500 50  0001 C CNN
	1    4900 3500
	-1   0    0    -1  
$EndComp
$Comp
L main-eagle-import:1,6_0,8 PAD1
U 1 0 57D809169B2D131C
P 1700 2600
F 0 "PAD1" H 1655 2673 59  0000 L BNN
F 1 "IN_LIGHTS" H 1655 2470 59  0000 L BNN
F 2 "main:1,6_0,8" H 1700 2600 50  0001 C CNN
F 3 "" H 1700 2600 50  0001 C CNN
	1    1700 2600
	1    0    0    -1  
$EndComp
$Comp
L main-eagle-import:1,6_0,8 PAD4
U 1 0 7B6E587B6FEA0A31
P 1700 3000
F 0 "PAD4" H 1655 3073 59  0000 L BNN
F 1 "IN_BREAKS" H 1655 2870 59  0000 L BNN
F 2 "main:1,6_0,8" H 1700 3000 50  0001 C CNN
F 3 "" H 1700 3000 50  0001 C CNN
	1    1700 3000
	1    0    0    -1  
$EndComp
$Comp
L main-eagle-import:2,54_1,1 PAD5
U 1 0 CE11E2546E049342
P 1500 4500
F 0 "PAD5" H 1455 4573 59  0000 L BNN
F 1 "2,54_1,1" H 1455 4370 59  0000 L BNN
F 2 "main:2,54_1,1" H 1500 4500 50  0001 C CNN
F 3 "" H 1500 4500 50  0001 C CNN
	1    1500 4500
	1    0    0    -1  
$EndComp
$Comp
L main-eagle-import:2,54_1,1 PAD7
U 1 0 72BED3B5A7252E9F
P 9100 3000
F 0 "PAD7" H 9055 3073 59  0000 L BNN
F 1 "2,54_1,1" H 9055 2870 59  0000 L BNN
F 2 "main:2,54_1,1" H 9100 3000 50  0001 C CNN
F 3 "" H 9100 3000 50  0001 C CNN
	1    9100 3000
	-1   0    0    1   
$EndComp
$Comp
L main-eagle-import:2,54_1,1 PAD8
U 1 0 CC96637BA6510F10
P 9100 2700
F 0 "PAD8" H 9055 2773 59  0000 L BNN
F 1 "2,54_1,1" H 9055 2570 59  0000 L BNN
F 2 "main:2,54_1,1" H 9100 2700 50  0001 C CNN
F 3 "" H 9100 2700 50  0001 C CNN
	1    9100 2700
	-1   0    0    1   
$EndComp
$Comp
L main-eagle-import:2,54_1,1 PAD9
U 1 0 C942C4DE3546A161
P 10100 3000
F 0 "PAD9" H 10055 3073 59  0000 L BNN
F 1 "2,54_1,1" H 10055 2870 59  0000 L BNN
F 2 "main:2,54_1,1" H 10100 3000 50  0001 C CNN
F 3 "" H 10100 3000 50  0001 C CNN
	1    10100 3000
	-1   0    0    -1  
$EndComp
$Comp
L main-eagle-import:2,54_1,1 PAD10
U 1 0 CAAA27C510CB1C84
P 10100 2800
F 0 "PAD10" H 10055 2873 59  0000 L BNN
F 1 "2,54_1,1" H 10055 2670 59  0000 L BNN
F 2 "main:2,54_1,1" H 10100 2800 50  0001 C CNN
F 3 "" H 10100 2800 50  0001 C CNN
	1    10100 2800
	-1   0    0    -1  
$EndComp
$Comp
L main-eagle-import:1,6_0,8 PAD11
U 1 0 552085C879516E
P 9100 3300
F 0 "PAD11" H 9055 3373 59  0000 L BNN
F 1 "1,6_0,8" H 9055 3170 59  0000 L BNN
F 2 "main:1,6_0,8" H 9100 3300 50  0001 C CNN
F 3 "" H 9100 3300 50  0001 C CNN
	1    9100 3300
	-1   0    0    1   
$EndComp
$Comp
L main-eagle-import:2,54_1,1 PAD6
U 1 0 7CAD29DB7C62D8DA
P 1500 4900
F 0 "PAD6" H 1455 4973 59  0000 L BNN
F 1 "2,54_1,1" H 1455 4770 59  0000 L BNN
F 2 "main:2,54_1,1" H 1500 4900 50  0001 C CNN
F 3 "" H 1500 4900 50  0001 C CNN
	1    1500 4900
	1    0    0    -1  
$EndComp
$Comp
L main-eagle-import:GND #GND01
U 1 0 6F68935FDB8695AC
P 4900 5700
F 0 "#GND01" H 4900 5700 50  0001 C CNN
F 1 "GND" H 4800 5600 59  0000 L BNN
F 2 "" H 4900 5700 50  0001 C CNN
F 3 "" H 4900 5700 50  0001 C CNN
	1    4900 5700
	-1   0    0    -1  
$EndComp
$Comp
L main-eagle-import:GND #GND02
U 1 0 350FEA2913A376EC
P 9800 3200
F 0 "#GND02" H 9800 3200 50  0001 C CNN
F 1 "GND" H 9700 3100 59  0000 L BNN
F 2 "" H 9800 3200 50  0001 C CNN
F 3 "" H 9800 3200 50  0001 C CNN
	1    9800 3200
	-1   0    0    -1  
$EndComp
$Comp
L main-eagle-import:+12V #P+01
U 1 0 93600057BCDF72C5
P 1900 4200
F 0 "#P+01" H 1900 4200 50  0001 C CNN
F 1 "+12V" V 2100 4000 59  0000 L BNN
F 2 "" H 1900 4200 50  0001 C CNN
F 3 "" H 1900 4200 50  0001 C CNN
	1    1900 4200
	1    0    0    -1  
$EndComp
$Comp
L main-eagle-import:+12V #P+05
U 1 0 708E00B833ACA7EC
P 6800 2100
F 0 "#P+05" H 6800 2100 50  0001 C CNN
F 1 "+12V" V 6700 1900 59  0000 L BNN
F 2 "" H 6800 2100 50  0001 C CNN
F 3 "" H 6800 2100 50  0001 C CNN
	1    6800 2100
	1    0    0    -1  
$EndComp
$Comp
L main-eagle-import:+12V #P+06
U 1 0 5DDE0B8BB0F39303
P 6800 4500
F 0 "#P+06" H 6800 4500 50  0001 C CNN
F 1 "+12V" V 6700 4300 59  0000 L BNN
F 2 "" H 6800 4500 50  0001 C CNN
F 3 "" H 6800 4500 50  0001 C CNN
	1    6800 4500
	1    0    0    -1  
$EndComp
$Comp
L main-eagle-import:+12V #P+07
U 1 0 21A83AE6BC2DCEA9
P 4900 4500
F 0 "#P+07" H 4900 4500 50  0001 C CNN
F 1 "+12V" V 4800 4300 59  0000 L BNN
F 2 "" H 4900 4500 50  0001 C CNN
F 3 "" H 4900 4500 50  0001 C CNN
	1    4900 4500
	1    0    0    -1  
$EndComp
$Comp
L main-eagle-import:GND #GND04
U 1 0 4B4BE4C0D896219B
P 1900 5100
F 0 "#GND04" H 1900 5100 50  0001 C CNN
F 1 "GND" H 1800 5000 59  0000 L BNN
F 2 "" H 1900 5100 50  0001 C CNN
F 3 "" H 1900 5100 50  0001 C CNN
	1    1900 5100
	-1   0    0    -1  
$EndComp
$Comp
L main-eagle-import:D-FILL-SOD-80 D1
U 1 0 BE5F3F048D141E84
P 4200 2800
F 0 "D1" H 4100 2870 59  0000 L BNN
F 1 "D-FILL-SOD-80" H 4100 2655 59  0000 L BNN
F 2 "main:SOD80" H 4200 2800 50  0001 C CNN
F 3 "" H 4200 2800 50  0001 C CNN
	1    4200 2800
	-1   0    0    1   
$EndComp
$Comp
L main-eagle-import:R_USB R2
U 1 0 2436C49681BCC900
P 4600 5100
F 0 "R2" H 4450 5159 59  0000 L BNN
F 1 "10k" H 4450 4970 59  0000 L BNN
F 2 "main:0805" H 4600 5100 50  0001 C CNN
F 3 "" H 4600 5100 50  0001 C CNN
	1    4600 5100
	1    0    0    -1  
$EndComp
$Comp
L main-eagle-import:IXDN609SIASOIC8 U$2
U 1 0 23DFBC32C9A1076A
P 5600 2800
F 0 "U$2" H 5300 2300 59  0000 L BNN
F 1 "IXDN609SIA" H 5300 2400 59  0000 L BNN
F 2 "main:SOIC8" H 5600 2800 50  0001 C CNN
F 3 "" H 5600 2800 50  0001 C CNN
	1    5600 2800
	1    0    0    -1  
$EndComp
$Comp
L main-eagle-import:IXDN609SIASOIC8 U$3
U 1 0 1A9B596435213F69
P 5600 5100
F 0 "U$3" H 5300 4600 59  0000 L BNN
F 1 "IXDN609SIA" H 5300 4700 59  0000 L BNN
F 2 "main:SOIC8" H 5600 5100 50  0001 C CNN
F 3 "" H 5600 5100 50  0001 C CNN
	1    5600 5100
	1    0    0    -1  
$EndComp
Wire Notes Line
	1000 3400 2700 3400
Wire Notes Line
	2700 3400 2700 2100
Wire Notes Line
	2700 2100 1000 2100
Wire Notes Line
	1000 2100 1000 3400
Text Notes 1100 2200 0    59   ~ 0
from Controller
Wire Notes Line
	1000 3900 1000 5300
Wire Notes Line
	1000 5300 2700 5300
Wire Notes Line
	2700 5300 2700 3900
Wire Notes Line
	2700 3900 1000 3900
Text Notes 1100 4000 0    59   ~ 0
from dcdc
Wire Notes Line
	8100 2300 8100 3800
Wire Notes Line
	8100 3800 10500 3800
Wire Notes Line
	10500 3800 10500 2300
Wire Notes Line
	10500 2300 8100 2300
Text Notes 8200 2400 0    59   ~ 0
to light
$EndSCHEMATC
