(module 1,6_0,8 (layer F.Cu) (tedit 0)
  (descr "<b>THROUGH-HOLE PAD</b>")
  (fp_text reference PAD11 (at -0.762 -1.016) (layer F.SilkS)
    (effects (font (size 1.2065 1.2065) (thickness 0.127)) (justify left bottom))
  )
  (fp_text value "" (at 0 -0.6) (layer F.Fab)
    (effects (font (size 0.02413 0.02413) (thickness 0.002032)) (justify left bottom))
  )
  (fp_line (start -0.762 -0.762) (end -0.508 -0.762) (layer F.SilkS) (width 0.1524))
  (fp_line (start -0.762 -0.762) (end -0.762 -0.508) (layer F.SilkS) (width 0.1524))
  (fp_line (start 0.762 -0.762) (end 0.762 -0.508) (layer F.SilkS) (width 0.1524))
  (fp_line (start 0.762 -0.762) (end 0.508 -0.762) (layer F.SilkS) (width 0.1524))
  (fp_line (start 0.762 0.508) (end 0.762 0.762) (layer F.SilkS) (width 0.1524))
  (fp_line (start 0.762 0.762) (end 0.508 0.762) (layer F.SilkS) (width 0.1524))
  (fp_line (start -0.508 0.762) (end -0.762 0.762) (layer F.SilkS) (width 0.1524))
  (fp_line (start -0.762 0.762) (end -0.762 0.508) (layer F.SilkS) (width 0.1524))
  (fp_circle (center 0 0) (end 0.635 0) (layer F.Fab) (width 0.1524))
  (pad 1 thru_hole circle (at 0 0) (size 1.6002 1.6002) (drill 0.8128) (layers *.Cu *.Mask)
    (solder_mask_margin 0.1016))
)
